{
    "response": {
        "status": "ok",
        "userTier": "developer",
        "total": 2035,
        "startIndex": 1,
        "pageSize": 10,
        "currentPage": 1,
        "pages": 204,
        "orderBy": "relevance",
        "results": [
            {
                "id": "technology/2024/mar/05/bitcoin-cryptocurrency-new-record-value-explainer",
                "type": "article",
                "sectionId": "technology",
                "sectionName": "Technology",
                "webPublicationDate": "2024-03-05T17:04:11Z",
                "webTitle": "Bitcoin: what has caused the cryptocurrency’s latest revival?",
                "webUrl": "https://www.theguardian.com/technology/2024/mar/05/bitcoin-cryptocurrency-new-record-value-explainer",
                "apiUrl": "https://content.guardianapis.com/technology/2024/mar/05/bitcoin-cryptocurrency-new-record-value-explainer",
                "fields": {
                    "thumbnail": "https://media.guim.co.uk/0d5555496583f2d44b226401e0bf82e28904eb39/0_217_5472_3283/500.jpg"
                },
                "isHosted": false,
                "pillarId": "pillar/news",
                "pillarName": "News"
            },
            {
                "id": "technology/2024/mar/11/bitcoin-price-70000-in-record-high-cryptocurrency-crypto-fca",
                "type": "article",
                "sectionId": "technology",
                "sectionName": "Technology",
                "webPublicationDate": "2024-03-11T19:22:21Z",
                "webTitle": "Bitcoin price nears $73,000 in fresh record high",
                "webUrl": "https://www.theguardian.com/technology/2024/mar/11/bitcoin-price-70000-in-record-high-cryptocurrency-crypto-fca",
                "apiUrl": "https://content.guardianapis.com/technology/2024/mar/11/bitcoin-price-70000-in-record-high-cryptocurrency-crypto-fca",
                "fields": {
                    "thumbnail": "https://media.guim.co.uk/753fe0f5d8eb093e75316ca82f4e67a8f5c28493/0_224_6720_4032/500.jpg"
                },
                "isHosted": false,
                "pillarId": "pillar/news",
                "pillarName": "News"
            },
            {
                "id": "technology/2024/mar/05/bitcoin-rises-above-69000-in-new-record-high",
                "type": "article",
                "sectionId": "technology",
                "sectionName": "Technology",
                "webPublicationDate": "2024-03-05T17:19:08Z",
                "webTitle": "Bitcoin rises above $69,000 in new record high",
                "webUrl": "https://www.theguardian.com/technology/2024/mar/05/bitcoin-rises-above-69000-in-new-record-high",
                "apiUrl": "https://content.guardianapis.com/technology/2024/mar/05/bitcoin-rises-above-69000-in-new-record-high",
                "fields": {
                    "thumbnail": "https://media.guim.co.uk/0df56aaf4c9870fa6882af99dfe812b81f543790/0_149_4000_2402/500.jpg"
                },
                "isHosted": false,
                "pillarId": "pillar/news",
                "pillarName": "News"
            },
            {
                "id": "business/nils-pratley-on-finance/2024/jan/11/bitcoin-tracking-etfs-sec-cryptocurrency",
                "type": "article",
                "sectionId": "business",
                "sectionName": "Business",
                "webPublicationDate": "2024-01-11T18:05:38Z",
                "webTitle": "Bitcoin-tracking ETFs: watershed moment or damp squib? | Nils Pratley",
                "webUrl": "https://www.theguardian.com/business/nils-pratley-on-finance/2024/jan/11/bitcoin-tracking-etfs-sec-cryptocurrency",
                "apiUrl": "https://content.guardianapis.com/business/nils-pratley-on-finance/2024/jan/11/bitcoin-tracking-etfs-sec-cryptocurrency",
                "fields": {
                    "thumbnail": "https://media.guim.co.uk/211b0e7d18f89fa9a2aefd7ad9b202e473714d06/0_0_8256_4954/500.jpg"
                },
                "isHosted": false,
                "pillarId": "pillar/news",
                "pillarName": "News"
            },
            {
                "id": "technology/2024/feb/06/craig-wright-denies-forging-documents-to-support-bitcoin-claim",
                "type": "article",
                "sectionId": "technology",
                "sectionName": "Technology",
                "webPublicationDate": "2024-02-06T19:10:22Z",
                "webTitle": "Craig Wright denies forging documents to support bitcoin claim",
                "webUrl": "https://www.theguardian.com/technology/2024/feb/06/craig-wright-denies-forging-documents-to-support-bitcoin-claim",
                "apiUrl": "https://content.guardianapis.com/technology/2024/feb/06/craig-wright-denies-forging-documents-to-support-bitcoin-claim",
                "fields": {
                    "thumbnail": "https://media.guim.co.uk/a89f2091b2dd900b3438740a81ea7bbcc061c055/287_275_7501_4500/500.jpg"
                },
                "isHosted": false,
                "pillarId": "pillar/news",
                "pillarName": "News"
            },
            {
                "id": "technology/2024/mar/20/ex-takeaway-worker-guilty-money-laundering-2bn-bitcoin-operation",
                "type": "article",
                "sectionId": "technology",
                "sectionName": "Technology",
                "webPublicationDate": "2024-03-20T22:13:15Z",
                "webTitle": "Ex-takeaway worker guilty of money laundering in £2bn bitcoin operation",
                "webUrl": "https://www.theguardian.com/technology/2024/mar/20/ex-takeaway-worker-guilty-money-laundering-2bn-bitcoin-operation",
                "apiUrl": "https://content.guardianapis.com/technology/2024/mar/20/ex-takeaway-worker-guilty-money-laundering-2bn-bitcoin-operation",
                "fields": {
                    "thumbnail": "https://media.guim.co.uk/6cc45caf3dbd6eef6155bc47542d9eb80a3e3cdc/0_186_5500_3300/500.jpg"
                },
                "isHosted": false,
                "pillarId": "pillar/news",
                "pillarName": "News"
            },
            {
                "id": "technology/2024/mar/14/australian-craig-wright-not-bitcoin-creator-satoshi-nakamoto-high-court-rules",
                "type": "article",
                "sectionId": "technology",
                "sectionName": "Technology",
                "webPublicationDate": "2024-03-14T14:51:36Z",
                "webTitle": " Australian computer scientist is not bitcoin creator Satoshi Nakamoto, high court rules",
                "webUrl": "https://www.theguardian.com/technology/2024/mar/14/australian-craig-wright-not-bitcoin-creator-satoshi-nakamoto-high-court-rules",
                "apiUrl": "https://content.guardianapis.com/technology/2024/mar/14/australian-craig-wright-not-bitcoin-creator-satoshi-nakamoto-high-court-rules",
                "fields": {
                    "thumbnail": "https://media.guim.co.uk/042afdf13435cdbf7f410c245ffd4a87f16d76ad/0_178_5500_3301/500.jpg"
                },
                "isHosted": false,
                "pillarId": "pillar/news",
                "pillarName": "News"
            },
            {
                "id": "technology/2024/jan/22/asic-examines-collapsed-bitcoin-company-blockchain-global-after-guardian-investigation",
                "type": "article",
                "sectionId": "technology",
                "sectionName": "Technology",
                "webPublicationDate": "2024-01-22T15:00:02Z",
                "webTitle": "Asic examines collapsed bitcoin company Blockchain Global after Guardian investigation",
                "webUrl": "https://www.theguardian.com/technology/2024/jan/22/asic-examines-collapsed-bitcoin-company-blockchain-global-after-guardian-investigation",
                "apiUrl": "https://content.guardianapis.com/technology/2024/jan/22/asic-examines-collapsed-bitcoin-company-blockchain-global-after-guardian-investigation",
                "fields": {
                    "thumbnail": "https://media.guim.co.uk/3ae212239522b37517fba12a60e061b77f7bee5b/197_0_2170_1302/500.jpg"
                },
                "isHosted": false,
                "pillarId": "pillar/news",
                "pillarName": "News"
            },
            {
                "id": "technology/2024/feb/05/craig-wrights-claim-he-invented-bitcoin-a-brazen-lie-court-told",
                "type": "article",
                "sectionId": "technology",
                "sectionName": "Technology",
                "webPublicationDate": "2024-02-05T19:44:57Z",
                "webTitle": "Craig Wright’s claim he invented bitcoin a ‘brazen lie’, court told",
                "webUrl": "https://www.theguardian.com/technology/2024/feb/05/craig-wrights-claim-he-invented-bitcoin-a-brazen-lie-court-told",
                "apiUrl": "https://content.guardianapis.com/technology/2024/feb/05/craig-wrights-claim-he-invented-bitcoin-a-brazen-lie-court-told",
                "fields": {
                    "thumbnail": "https://media.guim.co.uk/677aafbbb06f8a900d142a04f82a698dcd78cd9b/0_14_4634_2780/500.jpg"
                },
                "isHosted": false,
                "pillarId": "pillar/news",
                "pillarName": "News"
            },
            {
                "id": "technology/2024/jan/09/hyperverse-crypto-promoter-bitcoin-rodney-arrested-and-charged-in-us",
                "type": "article",
                "sectionId": "technology",
                "sectionName": "Technology",
                "webPublicationDate": "2024-01-08T14:00:44Z",
                "webTitle": "HyperVerse crypto promoter ‘Bitcoin Rodney’ arrested and charged in US ",
                "webUrl": "https://www.theguardian.com/technology/2024/jan/09/hyperverse-crypto-promoter-bitcoin-rodney-arrested-and-charged-in-us",
                "apiUrl": "https://content.guardianapis.com/technology/2024/jan/09/hyperverse-crypto-promoter-bitcoin-rodney-arrested-and-charged-in-us",
                "fields": {
                    "thumbnail": "https://media.guim.co.uk/0c45381815c5edf17b655eed21e17f4a7ef9d479/0_0_1790_1074/500.jpg"
                },
                "isHosted": false,
                "pillarId": "pillar/news",
                "pillarName": "News"
            }
        ]
    }
}